{
	"info": {
		"_postman_id": "b26dd62c-f253-423d-a3d8-f74263efb992",
		"name": "ejam-task",
		"schema": "https://schema.getpostman.com/json/collection/v2.1.0/collection.json"
	},
	"item": [
		{
			"name": "Create Order by webhook",
			"request": {
				"method": "POST",
				"header": [],
				"body": {
					"mode": "raw",
					"raw": "{\r\n    \"orderId\": \"NITESH\",\r\n    \"orderDate\": \"2021-11-20\",\r\n    \"productIds\": [\r\n        5,\r\n        4,\r\n        2\r\n    ],\r\n    \"currency\": \"INR\",\r\n    \"price\": 100,\r\n    \"isActive\": true,\r\n    \"url\":\"trippal.ai2\"\r\n}",
					"options": {
						"raw": {
							"language": "json"
						}
					}
				},
				"url": {
					"raw": "http://localhost:3000/api/order",
					"protocol": "http",
					"host": [
						"localhost"
					],
					"port": "3000",
					"path": [
						"api",
						"order"
					]
				}
			},
			"response": []
		},
		{
			"name": "Get orders by pagination",
			"request": {
				"method": "GET",
				"header": [],
				"url": {
					"raw": "http://localhost:3000/api/order?page=1",
					"protocol": "http",
					"host": [
						"localhost"
					],
					"port": "3000",
					"path": [
						"api",
						"order"
					],
					"query": [
						{
							"key": "page",
							"value": "1"
						}
					]
				}
			},
			"response": []
		}
	]
}